{
  "@type": "Input",
  "term": {
    "@id": "CAS-34494-04-7",
    "@type": "Term",
    "name": "Glyphosate",
    "units": "g active ingredient",
    "termType": "pesticideAI"
  },
  "value": [
    400
  ],
  "sd": [
    180
  ],
  "statsDefinition": "replications",
  "observations": [
    10
  ]
}
